<?xml version="1.0" encoding="UTF-8" standalone="no"?>
<!DOCTYPE svg  PUBLIC '-//W3C//DTD SVG 1.1//EN'  'http://www.w3.org/Graphics/SVG/1.1/DTD/svg11.dtd'>
<svg version="1.1" xmlns="http://www.w3.org/2000/svg">
<defs>
<font id="HelveticaNeueLTStd-Md" horiz-adv-x="556">
<font-face font-family="HelveticaNeueLT Std Med" underline-thickness="50" units-per-em="1000" ascent="714" x-height="517" bbox="-42 -221 938 952" cap-height="714" panose-1="2 11 6 4 2 2 2 2 2 4" font-weight="500" descent="-286" unicode-range="U+0020-00FE" underline-position="-150"/>
<missing-glyph/>
<glyph horiz-adv-x="278" unicode=" " glyph-name="space"/>
<glyph horiz-adv-x="278" unicode="!" d="M77 508v206h125v-206l-33 -309h-59zM72 0v125h134v-125h-134z" glyph-name="exclam"/>
<glyph horiz-adv-x="444" unicode='&quot;' d="M83 432v282h102v-282h-102zM259 432v282h102v-282h-102z" glyph-name="quotedbl"/>
<glyph unicode="#" d="M495 285v-75h-95l-30 -210h-80l29 210h-110l-30 -210h-80l29 210h-94v75h105l18 130h-94v75h104l29 210h81l-30 -210h111l29 210h81l-30 -210h86v-75h-96l-18 -130h85zM348 415h-111l-18 -130h111z" glyph-name="numbersign"/>
<glyph unicode="$" d="M302 306v-233q123 9 123 119q0 51 -32.5 75t-90.5 39zM17 217h114q-2 -140 128 -144v242q-39 11 -66.5 20.5t-60 27.5t-52.5 40t-34 56t-14 76q0 91 66.5 143.5t160.5 52.5v78h43v-78q95 0 157 -50t62 -145h-114q-5 105 -105 105v-211q42 -11 72 -21.5t63 -28.5t54 -40.5 t34.5 -56t13.5 -75.5q0 -107 -65.5 -163.5t-171.5 -61.5v-78h-43v78q-111 2 -177 63.5t-65 170.5zM259 441v200q-113 0 -113 -98q0 -44 30.5 -66.5t82.5 -35.5z" glyph-name="dollar"/>
<glyph horiz-adv-x="1000" unicode="%" d="M751 -14q-86 0 -126.5 55t-40.5 144q0 87 42 143t125 56t125 -56t42 -143q0 -89 -40.5 -144t-126.5 -55zM674 185q0 -134 76 -134q40 0 59 37t19 97q0 134 -78 134q-76 0 -76 -134zM249 316q-86 0 -126.5 55t-40.5 144q0 87 42 143t125 56t125 -56t42 -143 q0 -89 -40.5 -144t-126.5 -55zM172 515q0 -134 76 -134q40 0 59 37t19 97q0 134 -78 134q-76 0 -76 -134zM260 -24l389 748h76l-387 -748h-78z" glyph-name="percent"/>
<glyph horiz-adv-x="648" unicode="&amp;" d="M302 646q-32 0 -54 -22t-22 -57q0 -16 7.5 -34t14.5 -29t22.5 -30t20.5 -26q27 18 42 31t28.5 35.5t13.5 49.5q0 36 -20 59t-53 23zM396 156l-140 174q-4 -3 -26.5 -15t-31.5 -19.5t-24 -22.5t-21.5 -34t-6.5 -43q0 -56 32 -88t83 -32q13 0 25.5 1.5t23 5.5t18.5 7 t16.5 10t13.5 10.5t12 12t9.5 11.5t9 11.5t7.5 10.5zM522 0l-65 80q-77 -94 -200 -94q-100 0 -162.5 56.5t-62.5 155.5q0 123 164 207q-23 30 -36 49t-24.5 48.5t-11.5 58.5q0 76 50.5 123t124.5 47t126 -45t52 -126q0 -112 -129 -181l111 -134q16 45 22 96h100 q-12 -106 -56 -175l137 -166h-140z" glyph-name="ampersand"/>
<glyph horiz-adv-x="278" unicode="&apos;" d="M88 432v282h102v-282h-102z" glyph-name="quotesingle"/>
<glyph horiz-adv-x="278" unicode="(" d="M286 -191h-93q-68 108 -106 218t-38 243q0 239 144 461h93q-123 -220 -123 -461q0 -253 123 -461z" glyph-name="parenleft"/>
<glyph horiz-adv-x="278" unicode=")" d="M-8 731h93q68 -109 106 -219.5t38 -242.5q0 -240 -144 -460h-93q123 218 123 460q0 253 -123 462z" glyph-name="parenright"/>
<glyph horiz-adv-x="370" unicode="*" d="M130 534l-111 38l22 65l110 -43v120h68v-120l109 43l24 -65l-114 -38l70 -94l-53 -39l-71 98l-68 -98l-56 39z" glyph-name="asterisk"/>
<glyph horiz-adv-x="600" unicode="+" d="M249 304v202h102v-202h201v-102h-201v-202h-102v202h-201v102h201z" glyph-name="plus"/>
<glyph horiz-adv-x="278" unicode="," d="M69 0v135h139v-135q-1 -61 -38 -103.5t-97 -54.5v61q32 8 49 35.5t16 61.5h-69z" glyph-name="comma"/>
<glyph horiz-adv-x="389" unicode="-" d="M49 218v108h291v-108h-291z" glyph-name="hyphen"/>
<glyph horiz-adv-x="278" unicode="." d="M69 0v135h139v-135h-139z" glyph-name="period"/>
<glyph horiz-adv-x="352" unicode="/" d="M-22 -17l287 748h109l-287 -748h-109z" glyph-name="slash"/>
<glyph unicode="0" d="M278 81q128 0 128 269t-128 269t-128 -269t128 -269zM278 714q72 0 122 -33.5t75 -90.5t35 -115t10 -125t-10 -125t-35 -115t-75 -90.5t-122 -33.5t-122 33.5t-75 90.5t-35 115t-10 125t10 125t35 115t75 90.5t122 33.5z" glyph-name="zero"/>
<glyph unicode="1" d="M53 494v90q78 -1 135 28t69 88h93v-700h-125v494h-172z" glyph-name="one"/>
<glyph unicode="2" d="M517 102v-102h-478q1 163 154 265q16 12 55 38t59.5 41.5t46.5 40.5t37.5 52t12.5 58q1 48 -25.5 86t-92.5 38q-115 0 -120 -175h-114q0 120 63.5 195t177.5 75q61 0 107 -20.5t70.5 -53.5t36 -68.5t11.5 -72.5q0 -76 -41.5 -130.5t-114.5 -105.5q-14 -10 -58 -38.5 t-61 -41.5t-38.5 -36t-28.5 -45h341z" glyph-name="two"/>
<glyph unicode="3" d="M228 325v85q65 -3 110 23.5t45 86.5q0 44 -30.5 71.5t-78.5 27.5q-56 0 -87 -42.5t-29 -100.5h-114q5 105 67 171.5t165 66.5q89 0 155 -49.5t66 -137.5q0 -115 -99 -150v-2q59 -12 93 -59.5t34 -115.5q0 -96 -72 -155t-176 -59q-118 0 -181 65.5t-65 178.5h114 q-2 -66 32.5 -107.5t99.5 -41.5q59 0 96.5 33.5t37.5 91.5q0 32 -10.5 54.5t-27.5 35.5t-42 20t-49 8.5t-54 0.5z" glyph-name="three"/>
<glyph unicode="4" d="M522 256v-90h-90v-166h-108v166h-300v113l300 421h108v-444h90zM322 564l-210 -308h212v308h-2z" glyph-name="four"/>
<glyph unicode="5" d="M48 317l75 383h362v-102h-277l-36 -178l2 -2q48 53 129 53q102 0 160.5 -65.5t58.5 -168.5q0 -44 -14 -87t-42 -80.5t-76 -60.5t-110 -23q-105 0 -173 55.5t-72 157.5h114q5 -56 39 -87t90 -31q68 0 99 42t31 112q0 62 -34 104t-99 42q-89 0 -113 -64h-114z" glyph-name="five"/>
<glyph unicode="6" d="M285 81q58 0 90.5 43t32.5 103t-32 101.5t-91 41.5q-60 0 -93 -41t-33 -102t33.5 -103.5t92.5 -42.5zM509 523h-114q-4 43 -31 69.5t-71 26.5q-30 0 -53 -10.5t-38 -32t-25 -42.5t-16 -52.5t-8.5 -52t-4.5 -50.5l2 -2q23 40 63 61.5t88 21.5q102 0 161.5 -66t59.5 -169 t-64.5 -171t-168.5 -68q-60 0 -105.5 19t-73.5 51t-45.5 79.5t-24 99.5t-6.5 117q0 67 14 128t43 115t82.5 86.5t124.5 32.5q85 0 146 -53.5t65 -137.5z" glyph-name="six"/>
<glyph unicode="7" d="M35 598v102h479v-95q-116 -131 -182 -277t-79 -328h-125q11 159 84 314.5t186 283.5h-363z" glyph-name="seven"/>
<glyph unicode="8" d="M278 76q58 0 95.5 35t37.5 95q0 57 -37.5 90t-95.5 33t-95.5 -33t-37.5 -90q0 -60 37.5 -95t95.5 -35zM278 -14q-109 0 -178 59.5t-69 160.5q0 65 34.5 110.5t93.5 60.5v2q-99 38 -99 144q0 90 57 140.5t161 50.5t161 -50.5t57 -140.5q0 -106 -99 -144v-2 q59 -15 93.5 -60.5t34.5 -110.5q0 -101 -69 -160.5t-178 -59.5zM278 624q-48 0 -79 -28.5t-31 -78.5q0 -48 30.5 -75.5t79.5 -27.5t79.5 27.5t30.5 75.5q0 50 -31 78.5t-79 28.5z" glyph-name="eight"/>
<glyph unicode="9" d="M270 619q-59 0 -90.5 -41t-31.5 -102q0 -62 31.5 -104.5t90.5 -42.5q61 0 94 42.5t33 104.5q0 60 -33 101.5t-94 41.5zM47 177h114q4 -43 31 -69.5t71 -26.5q30 0 53 10.5t38 32t25 42.5t16 52.5t8.5 52t4.5 50.5l-2 2q-22 -40 -62 -62t-89 -22q-99 0 -160 64.5 t-61 171.5q0 105 64.5 172t176.5 67q58 0 101.5 -19t71 -51t44.5 -79.5t23.5 -99.5t6.5 -117q0 -67 -14 -128t-43 -115t-82.5 -86.5t-124.5 -32.5q-85 0 -146 53.5t-65 137.5z" glyph-name="nine"/>
<glyph horiz-adv-x="278" unicode=":" d="M69 371v135h139v-135h-139zM69 0v135h139v-135h-139z" glyph-name="colon"/>
<glyph horiz-adv-x="278" unicode=";" d="M69 0v135h139v-135q-1 -61 -38 -103.5t-97 -54.5v61q32 8 49 35.5t16 61.5h-69zM69 371v135h139v-135h-139z" glyph-name="semicolon"/>
<glyph horiz-adv-x="600" unicode="&lt;" d="M554 94v-102l-508 225v72l508 225v-102l-374 -159z" glyph-name="less"/>
<glyph horiz-adv-x="600" unicode="=" d="M552 405v-102h-504v102h504zM552 203v-102h-504v102h504z" glyph-name="equal"/>
<glyph horiz-adv-x="600" unicode="&gt;" d="M46 94l374 159l-374 159v102l508 -225v-72l-508 -225v102z" glyph-name="greater"/>
<glyph unicode="?" d="M163 487h-114q-1 111 64.5 177.5t175.5 66.5q95 0 156.5 -54t61.5 -148q0 -34 -6.5 -59.5t-22 -46t-26 -31t-33.5 -29.5q-33 -28 -47.5 -43t-27.5 -48t-13 -78h-108q0 83 17.5 124.5t60.5 78.5q4 4 15.5 13.5t15.5 13t13 12.5t13 14t9.5 14.5t8 17.5t4.5 19.5t2 23.5 q0 55 -32 83t-66 28q-60 0 -90.5 -39.5t-30.5 -109.5zM208 0v125h134v-125h-134z" glyph-name="question"/>
<glyph horiz-adv-x="800" unicode="@" d="M361 216q56 0 96.5 59t40.5 119q0 35 -23.5 61.5t-55.5 26.5q-58 0 -98 -56.5t-40 -118.5q0 -40 22 -65.5t58 -25.5zM615 542l-72 -263q-22 -69 10 -69q48 0 89 64t41 152q0 109 -77 174.5t-190 65.5q-126 0 -206.5 -86.5t-80.5 -213.5q0 -144 83.5 -231t212.5 -87 q65 0 124.5 26t100.5 73h70q-48 -77 -127.5 -120.5t-171.5 -43.5q-157 0 -264.5 109t-107.5 278q0 150 108.5 255.5t258.5 105.5q137 0 236 -83.5t99 -209.5q0 -71 -25 -130.5t-63 -94.5t-77 -54t-71 -19q-25 0 -41.5 15t-17.5 43h-2q-51 -57 -112 -57q-62 0 -104 46 t-42 111q0 100 62.5 179.5t156.5 79.5q77 0 112 -72l18 57h70z" glyph-name="at"/>
<glyph horiz-adv-x="667" unicode="A" d="M331 591l-108 -307h218l-107 307h-3zM-7 0l274 714h133l275 -714h-134l-67 189h-285l-67 -189h-129z" glyph-name="A"/>
<glyph horiz-adv-x="704" unicode="B" d="M201 325v-223h221q57 0 88.5 29.5t31.5 83.5q0 52 -31.5 81t-88.5 29h-221zM76 0v714h347q99 0 155.5 -45t56.5 -132q0 -108 -102 -152v-2q65 -14 99.5 -62.5t34.5 -121.5q0 -89 -65.5 -144t-197.5 -55h-328zM201 612v-197h204q46 0 75.5 26t29.5 73q0 52 -26 75t-79 23 h-204z" glyph-name="B"/>
<glyph horiz-adv-x="722" unicode="C" d="M683 487h-125q-36 142 -178 142q-107 0 -162 -79.5t-55 -192.5t55 -192.5t162 -79.5q80 0 127 52.5t55 134.5h122q-8 -129 -91.5 -209t-212.5 -80q-156 0 -249 108t-93 266t93 266t249 108q124 -1 208 -66t95 -178z" glyph-name="C"/>
<glyph horiz-adv-x="722" unicode="D" d="M201 612v-510h123q71 0 119.5 19t73.5 55.5t35 79.5t10 101t-10 101t-35 79.5t-73.5 55.5t-119.5 19h-123zM76 0v714h296q157 0 236 -99.5t79 -257.5t-79 -257.5t-236 -99.5h-296z" glyph-name="D"/>
<glyph horiz-adv-x="630" unicode="E" d="M76 0v714h514v-108h-389v-187h360v-102h-360v-209h396v-108h-521z" glyph-name="E"/>
<glyph horiz-adv-x="593" unicode="F" d="M76 0v714h493v-108h-368v-187h323v-102h-323v-317h-125z" glyph-name="F"/>
<glyph horiz-adv-x="759" unicode="G" d="M699 376v-376h-80l-19 84q-49 -56 -98.5 -78.5t-116.5 -22.5q-156 0 -249 108t-93 266t93 266t249 108q122 0 207 -63.5t99 -180.5h-122q-9 68 -61 105t-123 37q-107 0 -162 -79.5t-55 -192.5t55 -192.5t162 -79.5q94 -1 146 51.5t54 144.5h-190v95h304z" glyph-name="G"/>
<glyph horiz-adv-x="722" unicode="H" d="M73 0v714h125v-284h325v284h125v-714h-125v322h-325v-322h-125z" glyph-name="H"/>
<glyph horiz-adv-x="278" unicode="I" d="M76 0v714h125v-714h-125z" glyph-name="I"/>
<glyph horiz-adv-x="537" unicode="J" d="M461 714v-484q0 -42 -4.5 -74t-19.5 -66t-39.5 -56t-68.5 -36.5t-103 -14.5q-108 0 -160.5 62.5t-52.5 166.5v38h125v-37q0 -64 22 -96t76 -32q58 0 79 33t21 105v491h125z" glyph-name="J"/>
<glyph horiz-adv-x="685" unicode="K" d="M76 0v714h125v-325l318 325h154l-285 -285l305 -429h-156l-234 341l-102 -101v-240h-125z" glyph-name="K"/>
<glyph horiz-adv-x="574" unicode="L" d="M76 0v714h125v-606h363v-108h-488z" glyph-name="L"/>
<glyph horiz-adv-x="889" unicode="M" d="M74 0v714h176l197 -559h2l192 559h174v-714h-119v551h-2l-198 -551h-103l-198 551h-2v-551h-119z" glyph-name="M"/>
<glyph horiz-adv-x="722" unicode="N" d="M71 0v714h132l326 -526h2v526h119v-714h-132l-325 525h-3v-525h-119z" glyph-name="N"/>
<glyph horiz-adv-x="760" unicode="O" d="M380 731q156 0 249 -108t93 -266t-93 -266t-249 -108t-249 108t-93 266t93 266t249 108zM380 629q-107 0 -162 -79.5t-55 -192.5t55 -192.5t162 -79.5t162 79.5t55 192.5t-55 192.5t-162 79.5z" glyph-name="O"/>
<glyph horiz-adv-x="667" unicode="P" d="M201 612v-236h183q50 0 87.5 28t37.5 90q0 118 -123 118h-185zM76 0v714h315q72 0 123 -21t75.5 -57t34.5 -70.5t10 -72.5t-10 -72.5t-34.5 -69.5t-75.5 -56t-123 -21h-190v-274h-125z" glyph-name="P"/>
<glyph horiz-adv-x="760" unicode="Q" d="M460 102l-72 63l60 69l87 -76q62 74 62 199q0 113 -55 192.5t-162 79.5t-162 -79.5t-55 -192.5t55 -192.5t162 -79.5q45 0 80 17zM621 83l92 -80l-61 -68l-104 91q-76 -43 -168 -43q-156 0 -249 108t-93 266t93 266t249 108t249 -108t93 -266q0 -79 -25 -152.5 t-76 -121.5z" glyph-name="Q"/>
<glyph horiz-adv-x="704" unicode="R" d="M201 612v-223h205q122 0 122 114q0 63 -33.5 86t-90.5 23h-203zM76 0v714h341q116 0 176 -50.5t60 -142.5q0 -139 -118 -180v-2q42 -6 74 -40.5t32 -110.5q0 -146 39 -188h-134q-19 31 -19 105q0 103 -29.5 146t-112.5 43h-184v-294h-125z" glyph-name="R"/>
<glyph horiz-adv-x="648" unicode="S" d="M33 238h125q0 -78 50 -115.5t131 -37.5q77 0 114 31.5t37 76.5q0 66 -59 88q-22 8 -51.5 16.5t-78 20.5t-83.5 22q-158 43 -158 181q0 68 39 117t97 71t125 22q117 0 195.5 -60.5t78.5 -167.5h-125q-8 126 -154 126q-52 0 -91.5 -22t-39.5 -71q0 -69 85 -92q1 0 47 -12 t94.5 -25t64.5 -18q67 -20 103 -71.5t36 -110.5q0 -76 -42.5 -128.5t-104.5 -74t-137 -21.5q-130 0 -213 64t-85 191z" glyph-name="S"/>
<glyph horiz-adv-x="593" unicode="T" d="M8 606v108h578v-108h-227v-606h-125v606h-226z" glyph-name="T"/>
<glyph horiz-adv-x="722" unicode="U" d="M68 257v457h125v-416q0 -36 2 -59t11 -54.5t26 -49.5t49.5 -31t79.5 -13t79.5 13t49.5 31t26 49.5t11 54.5t2 59v416h125v-457q0 -134 -78.5 -204t-214.5 -70t-214.5 70t-78.5 204z" glyph-name="U"/>
<glyph horiz-adv-x="611" unicode="V" d="M233 0l-238 714h130l179 -565h2l183 565h127l-244 -714h-139z" glyph-name="V"/>
<glyph horiz-adv-x="944" unicode="W" d="M194 0l-188 714h127l129 -546h2l144 546h128l140 -546h2l133 546h127l-197 -714h-127l-143 546h-2l-146 -546h-129z" glyph-name="W"/>
<glyph horiz-adv-x="648" unicode="X" d="M250 370l-236 344h149l162 -252l169 252h140l-236 -344l253 -370h-152l-178 273l-181 -273h-143z" glyph-name="X"/>
<glyph horiz-adv-x="648" unicode="Y" d="M262 0v280l-268 434h145l189 -320l186 320h140l-267 -434v-280h-125z" glyph-name="Y"/>
<glyph horiz-adv-x="630" unicode="Z" d="M55 606v108h543v-95l-416 -511h426v-108h-585v102l416 504h-384z" glyph-name="Z"/>
<glyph horiz-adv-x="296" unicode="[" d="M72 -191v922h223v-90h-115v-742h115v-90h-223z" glyph-name="bracketleft"/>
<glyph horiz-adv-x="352" unicode="\" d="M87 731l287 -748h-109l-287 748h109z" glyph-name="backslash"/>
<glyph horiz-adv-x="296" unicode="]" d="M224 731v-922h-223v90h115v742h-115v90h223z" glyph-name="bracketright"/>
<glyph horiz-adv-x="600" unicode="^" d="M186 335h-102l180 365h72l180 -365h-102l-114 247z" glyph-name="asciicircum"/>
<glyph horiz-adv-x="500" unicode="_" d="M500 -125h-500v50h500v-50z" glyph-name="underscore"/>
<glyph horiz-adv-x="241" unicode="`" d="M-29 731h134l91 -143h-83z" glyph-name="grave"/>
<glyph unicode="a" d="M379 174v85q-16 -10 -37.5 -15.5t-55.5 -9.5t-47 -6q-43 -7 -68 -26t-25 -60q0 -34 33.5 -50t71.5 -16q46 0 87 24.5t41 73.5zM493 381v-266q0 -21 6 -30t21 -9q16 0 28 2v-79q-37 -13 -72 -13q-76 0 -88 63q-32 -31 -81 -47t-98 -16q-75 0 -126 39.5t-51 111.5 q0 46 16.5 77.5t48.5 48t61 23.5t73 12q17 3 46.5 6.5t44.5 6.5t32 9.5t24.5 19t7.5 31.5q0 70 -107 70q-50 0 -80 -20.5t-34 -61.5h-114q6 92 71.5 132t163.5 40q85 0 146 -37t61 -113z" glyph-name="a"/>
<glyph horiz-adv-x="611" unicode="b" d="M461 258q0 75 -38 129t-105 54q-70 0 -107.5 -49t-37.5 -134q0 -80 39 -131t106 -51q72 0 107.5 53t35.5 129zM63 0v714h114v-264h2q23 37 66 59t88 22q117 0 179.5 -77.5t62.5 -197.5q0 -113 -57.5 -191.5t-165.5 -78.5q-136 0 -179 85h-2v-71h-108z" glyph-name="b"/>
<glyph unicode="c" d="M523 344h-114q-7 46 -38.5 71.5t-79.5 25.5q-25 0 -47.5 -8t-45 -27t-36 -58t-13.5 -95q0 -73 34 -125t103 -52q50 0 82.5 31.5t40.5 86.5h114q-16 -101 -76.5 -154.5t-160.5 -53.5q-118 0 -184.5 74.5t-66.5 192.5q0 123 66 200.5t189 77.5q95 0 160 -48t73 -139z" glyph-name="c"/>
<glyph horiz-adv-x="611" unicode="d" d="M149 253q0 -73 36.5 -125t106.5 -52q71 0 108 54t37 129q0 85 -38.5 133.5t-104.5 48.5q-74 0 -109.5 -54.5t-35.5 -133.5zM547 714v-714h-108v70h-2q-21 -42 -64.5 -63t-95.5 -21q-118 0 -180 77t-62 199q0 132 65.5 200.5t158.5 68.5q53 0 100 -20.5t72 -60.5h2v264 h114z" glyph-name="d"/>
<glyph unicode="e" d="M529 229h-380q0 -65 35.5 -109t103.5 -44q96 0 126 86h108q-18 -83 -82.5 -129.5t-151.5 -46.5q-119 0 -186 75t-67 197q0 114 69 193.5t181 79.5q119 0 189 -91t55 -211zM149 304h266q-3 57 -38.5 97t-91.5 40q-58 0 -96 -39t-40 -98z" glyph-name="e"/>
<glyph horiz-adv-x="315" unicode="f" d="M9 432v85h85v43q0 90 38.5 122t104.5 32q55 0 80 -7v-89q-23 6 -53 6q-56 0 -56 -54v-53h97v-85h-97v-432h-114v432h-85z" glyph-name="f"/>
<glyph horiz-adv-x="593" unicode="g" d="M285 90q70 0 104.5 53t34.5 127q0 73 -34.5 122t-104.5 49t-103 -53t-33 -127q0 -70 34.5 -120.5t101.5 -50.5zM538 517v-490q0 -115 -65 -173.5t-189 -58.5q-57 0 -104.5 14t-84.5 52t-42 95h114q10 -45 41.5 -60.5t82.5 -15.5q133 0 133 132v79h-2q-24 -43 -65.5 -67 t-89.5 -24q-79 0 -132.5 38t-76.5 97.5t-23 136.5q0 109 63.5 184t170.5 75q51 0 91.5 -21.5t61.5 -63.5h2v71h114z" glyph-name="g"/>
<glyph horiz-adv-x="574" unicode="h" d="M60 0v714h114v-265h2q22 36 63.5 59t91.5 23q86 0 134.5 -45t48.5 -131v-355h-114v325q-1 60 -25.5 88t-75.5 28q-56 0 -90.5 -39t-34.5 -97v-305h-114z" glyph-name="h"/>
<glyph horiz-adv-x="241" unicode="i" d="M63 0v517h114v-517h-114zM63 606v108h114v-108h-114z" glyph-name="i"/>
<glyph horiz-adv-x="241" unicode="j" d="M63 -39v556h114v-561q0 -80 -35 -120.5t-113 -40.5q-21 0 -51 4v90q30 -4 39 -4q29 0 37.5 17t8.5 59zM63 606v108h114v-108h-114z" glyph-name="j"/>
<glyph horiz-adv-x="537" unicode="k" d="M63 0v714h114v-406l206 209h140l-198 -190l217 -327h-139l-158 251l-68 -66v-185h-114z" glyph-name="k"/>
<glyph horiz-adv-x="241" unicode="l" d="M63 0v714h114v-714h-114z" glyph-name="l"/>
<glyph horiz-adv-x="870" unicode="m" d="M60 0v517h108v-72h3q57 86 159 86q50 0 89 -22t56 -64q62 86 162 86q85 0 129 -41t44 -133v-357h-114v302q0 29 -1 46.5t-6.5 37.5t-15 30.5t-27.5 17.5t-44 7q-110 0 -110 -138v-303h-114v332q0 56 -20.5 82.5t-70.5 26.5q-47 0 -80 -36t-33 -98v-307h-114z" glyph-name="m"/>
<glyph horiz-adv-x="574" unicode="n" d="M60 0v517h108v-76l2 -2q26 43 68 67.5t93 24.5q86 0 134.5 -45t48.5 -131v-355h-114v325q-1 60 -25.5 88t-75.5 28q-56 0 -90.5 -39t-34.5 -97v-305h-114z" glyph-name="n"/>
<glyph horiz-adv-x="593" unicode="o" d="M297 76q72 0 109.5 54t37.5 129q0 74 -37.5 128t-109.5 54t-109.5 -54t-37.5 -128q0 -75 37.5 -129t109.5 -54zM297 -14q-122 0 -191.5 75.5t-69.5 197.5q0 121 69.5 196.5t191.5 75.5t191.5 -75.5t69.5 -196.5q0 -122 -69.5 -197.5t-191.5 -75.5z" glyph-name="o"/>
<glyph horiz-adv-x="611" unicode="p" d="M461 258q0 75 -38 129t-105 54q-70 0 -107.5 -49t-37.5 -134q0 -80 39 -131t106 -51q72 0 107.5 53t35.5 129zM63 -191v708h108v-70h2q46 84 160 84q117 0 179.5 -77.5t62.5 -197.5q0 -113 -57.5 -191.5t-165.5 -78.5q-53 0 -100 20t-73 61h-2v-258h-114z" glyph-name="p"/>
<glyph horiz-adv-x="611" unicode="q" d="M149 258q0 -76 35.5 -129t107.5 -53t108.5 49t36.5 133q0 85 -37.5 134t-107.5 49q-67 0 -105 -54t-38 -129zM547 517v-708h-114v258h-2q-26 -41 -73 -61t-100 -20q-108 0 -165.5 78.5t-57.5 191.5q0 120 62.5 197.5t179.5 77.5q114 0 160 -84h2v70h108z" glyph-name="q"/>
<glyph horiz-adv-x="352" unicode="r" d="M60 0v517h107v-100h2q10 43 55 78.5t96 35.5q13 0 43 -3v-110q-40 5 -49 5q-61 0 -100.5 -47t-39.5 -130v-246h-114z" glyph-name="r"/>
<glyph horiz-adv-x="519" unicode="s" d="M32 166h114q8 -90 117 -90q19 0 37 2.5t37.5 9t30.5 21t10 35.5q-1 13 -5.5 23t-15 17.5t-20.5 12.5t-28 10t-30 8t-35 7.5t-35 7.5q-36 8 -62 17.5t-51.5 26t-39 44t-13.5 65.5q0 40 20 70.5t53 46.5t69 23.5t74 7.5q87 0 146.5 -39t69.5 -120h-119q-13 69 -105 69 q-21 0 -40 -3.5t-36.5 -16t-17.5 -33.5q0 -12 4.5 -21.5t14.5 -16.5t20 -12t28 -10t30.5 -8t35.5 -7.5t35 -7.5q37 -8 62.5 -17.5t51.5 -26.5t39.5 -43.5t13.5 -63.5q0 -58 -36.5 -97.5t-86.5 -55t-108 -15.5q-102 0 -165 46t-64 134z" glyph-name="s"/>
<glyph horiz-adv-x="333" unicode="t" d="M8 432v85h86v155h114v-155h103v-85h-103v-276q0 -40 9.5 -55.5t45.5 -15.5q32 0 48 4v-88q-8 -1 -23 -2.5t-27.5 -2.5t-23.5 -1q-84 0 -112.5 31t-30.5 101v305h-86z" glyph-name="t"/>
<glyph horiz-adv-x="574" unicode="u" d="M514 517v-517h-112v72h-2q-21 -38 -62.5 -62t-84.5 -24q-100 0 -146.5 50t-46.5 153v328h114v-317q0 -124 99 -124q127 0 127 141v300h114z" glyph-name="u"/>
<glyph horiz-adv-x="519" unicode="v" d="M197 0l-188 517h124l131 -397h2l126 397h118l-185 -517h-128z" glyph-name="v"/>
<glyph horiz-adv-x="778" unicode="w" d="M173 0l-160 517h121l101 -386h2l97 386h115l93 -386h2l105 386h116l-162 -517h-117l-96 384h-2l-95 -384h-120z" glyph-name="w"/>
<glyph horiz-adv-x="537" unicode="x" d="M4 0l195 272l-179 245h138l108 -159l113 159h132l-176 -239l198 -278h-137l-131 191l-127 -191h-134z" glyph-name="x"/>
<glyph horiz-adv-x="519" unicode="y" d="M199 2l-196 515h125l135 -386h2l131 386h119l-201 -545q-36 -90 -56 -117q-44 -60 -127 -60q-40 0 -79 6v96q42 -7 54 -7q36 0 52 17t28 55z" glyph-name="y"/>
<glyph horiz-adv-x="500" unicode="z" d="M42 427v90h420v-80l-296 -347h311v-90h-455v80l286 347h-266z" glyph-name="z"/>
<glyph horiz-adv-x="296" unicode="{" d="M-4 225v90q31 0 62.5 17.5t31.5 55.5v206q0 63 43.5 100t84.5 37h91v-90h-55q-56 0 -56 -70v-195q0 -37 -21 -62t-41 -32.5t-42 -10.5v-2q103 -10 104 -111v-189q0 -70 56 -70h55v-90h-91q-41 0 -84.5 37t-43.5 100v198q0 43 -31.5 62t-62.5 19z" glyph-name="braceleft"/>
<glyph horiz-adv-x="222" unicode="|" d="M60 -214v1000h102v-1000h-102z" glyph-name="bar"/>
<glyph horiz-adv-x="296" unicode="}" d="M300 315v-90q-31 0 -62.5 -17.5t-31.5 -55.5v-206q0 -63 -43.5 -100t-84.5 -37h-91v90h55q56 0 56 70v195q0 37 21 62t41 32.5t42 10.5v2q-103 10 -104 111v189q0 70 -56 70h-55v90h91q41 0 84.5 -37t43.5 -100v-198q0 -43 31.5 -62t62.5 -19z" glyph-name="braceright"/>
<glyph horiz-adv-x="600" unicode="~" d="M495 338l36 -84q-20 -27 -33 -42t-38 -29.5t-54 -14.5q-42 0 -102 33q-62 35 -115 35q-49 0 -84 -68l-36 84q45 86 125 86q39 0 111 -32q7 -3 21.5 -9.5t23 -10t20 -8t20.5 -6.5t17 -2q19 0 37 12.5t25.5 22t25.5 33.5z" glyph-name="asciitilde"/>
<glyph horiz-adv-x="278" unicode=" " glyph-name="uni00A0"/>
<glyph horiz-adv-x="278" unicode="¡" d="M202 21v-204h-125v204l33 311h59zM206 531v-125h-134v125h134z" glyph-name="exclamdown"/>
<glyph unicode="¢" d="M268 76v365q-61 -6 -89 -61t-28 -127q0 -67 29 -117.5t88 -59.5zM268 -104v90q-105 0 -168 77t-63 190q0 125 64.5 201.5t166.5 76.5v90h43v-90q85 0 145.5 -51t67.5 -136h-114q-5 43 -32.5 70t-66.5 27v-365q90 15 103 118h114q-18 -98 -72.5 -153t-144.5 -55v-90h-43z " glyph-name="cent"/>
<glyph unicode="£" d="M31 319v65h63q-47 58 -47 141q0 90 71 148t163 58q117 0 183.5 -63t67.5 -184h-114q-7 152 -135 152q-48 0 -79.5 -31.5t-31.5 -85.5q0 -50 46 -135h147v-65h-123q16 -30 16 -67q0 -89 -101 -164l2 -2q67 27 92 27q32 0 81 -17q44 -18 74 -18q53 0 97 38l51 -77 q-65 -56 -160 -56q-14 0 -30.5 2.5t-36.5 6.5t-32 6q-66 20 -105 20q-61 0 -101 -34l-53 81q42 28 75 73.5t33 88.5q0 48 -21 92h-92z" glyph-name="sterling"/>
<glyph unicode="¤" d="M76 90l-56 56l57 61q-50 56 -50 142q0 95 50 144l-57 61l57 57l57 -56q54 46 146 46q87 0 137 -45l58 57l61 -61l-56 -58q47 -50 47 -143q0 -89 -48 -146l55 -59l-55 -55l-57 58q-52 -50 -143 -50q-93 0 -147 49zM279 201q60 0 100 44t40 106q0 60 -40 104t-99 44 q-62 0 -103.5 -43.5t-41.5 -106.5q0 -62 41.5 -105t102.5 -43z" glyph-name="currency"/>
<glyph unicode="¥" d="M221 0v165h-137v65h137v68h-137v65h98l-187 351h127l156 -320l159 320h124l-188 -351h99v-65h-137v-68h137v-65h-137v-165h-114z" glyph-name="yen"/>
<glyph horiz-adv-x="222" unicode="¦" d="M60 -89v250h102v-250h-102zM60 411v250h102v-250h-102z" glyph-name="brokenbar"/>
<glyph unicode="§" d="M357 310l-166 95q-27 -8 -44 -30t-17 -50q0 -47 55 -78l182 -102q60 26 60 82q0 44 -70 83zM485 542h-108q-2 43 -27 71t-67 28q-32 0 -57 -21.5t-25 -53.5q0 -10 2.5 -19.5t9 -18.5t12.5 -16.5t18 -16t20 -14t24.5 -14t25 -13t27.5 -14l27 -13.5q79 -40 123.5 -82.5 t44.5 -106.5q0 -47 -30.5 -88t-75.5 -56q55 -46 55 -128q0 -81 -58 -126t-140 -45q-94 0 -153.5 54t-62.5 151h108q8 -115 105 -115q87 0 87 81q0 12 -2.5 23t-9.5 21t-13 18t-18.5 17.5t-21 15.5t-25 15.5t-25.5 14t-29 15t-28 14.5q-39 20 -65.5 36t-54.5 40t-42 53 t-14 63q0 103 108 149q-43 44 -43 101q0 76 60 122.5t137 46.5q87 0 143.5 -51t57.5 -138z" glyph-name="section"/>
<glyph horiz-adv-x="241" unicode="¨" d="M150 707h114v-108h-114v108zM92 599h-114v108h114v-108z" glyph-name="dieresis"/>
<glyph horiz-adv-x="800" unicode="©" d="M767 357q0 -165 -107.5 -269.5t-258.5 -104.5q-160 0 -264 106.5t-104 267.5q0 165 107.5 269.5t260.5 104.5q151 0 258.5 -104.5t107.5 -269.5zM687 357q0 135 -82.5 222t-203.5 87q-123 0 -205.5 -87t-82.5 -222q0 -131 79 -220t209 -89q122 0 204 87t82 222zM521 285 h69q-13 -70 -61.5 -112t-115.5 -42q-95 0 -153.5 64t-58.5 162q0 93 57 153.5t153 61.5q70 0 119.5 -39.5t58.5 -111.5h-68q-8 39 -38 62.5t-72 23.5q-61 0 -95.5 -42.5t-34.5 -107.5q0 -67 36.5 -114t95.5 -47q44 0 73.5 25t34.5 64z" glyph-name="copyright"/>
<glyph horiz-adv-x="380" unicode="ª" d="M244 491v44q-15 -7 -84 -19q-57 -9 -57 -45q0 -33 56 -33q85 0 85 53zM331 621v-151q0 -12 3.5 -17.5t13.5 -4.5q9 0 16 1v-68q-22 -8 -47 -8q-54 0 -62 49q-14 -21 -49.5 -35t-67.5 -14q-50 0 -86 24.5t-36 68.5q0 22 8.5 39t19.5 26.5t32.5 17t35 10.5t39.5 7 q6 1 16.5 2.5t16.5 2.5t14.5 3t13 3t10.5 3t9.5 4.5t6.5 5.5t4.5 6.5t1.5 7.5q0 20 -10.5 30.5t-21.5 12.5t-28 2q-66 0 -70 -42h-85q6 57 50.5 82t109.5 25q58 0 100 -23.5t42 -69.5z" glyph-name="ordfeminine"/>
<glyph horiz-adv-x="463" unicode="«" d="M205 93l-155 123v112l155 123v-103l-95 -76l95 -76v-103zM403 93l-155 123v112l155 123v-103l-95 -76l95 -76v-103z" glyph-name="guillemotleft"/>
<glyph horiz-adv-x="600" unicode="¬" d="M450 108v195h-402v102h504v-297h-102z" glyph-name="logicalnot"/>
<glyph horiz-adv-x="389" unicode="­" d="M49 218v108h291v-108h-291z" glyph-name="uni00AD"/>
<glyph horiz-adv-x="800" unicode="®" d="M327 320v-177h-68v414h157q76 0 113.5 -28.5t37.5 -90.5q0 -101 -108 -113l116 -182h-77l-107 177h-64zM327 378h76q47 0 71.5 12t24.5 53q0 56 -90 56h-82v-121zM767 357q0 -165 -107.5 -269.5t-258.5 -104.5q-160 0 -264 106.5t-104 267.5q0 165 107.5 269.5 t260.5 104.5q151 0 258.5 -104.5t107.5 -269.5zM687 357q0 135 -82.5 222t-203.5 87q-123 0 -205.5 -87t-82.5 -222q0 -131 79 -220t209 -89q122 0 204 87t82 222z" glyph-name="registered"/>
<glyph horiz-adv-x="241" unicode="¯" d="M265 619h-288v65h288v-65z" glyph-name="macron"/>
<glyph horiz-adv-x="400" unicode="°" d="M50 564q0 62 44 106t106 44t106 -44t44 -106t-44 -106t-106 -44t-106 44t-44 106zM106 564q0 -39 27.5 -66.5t66.5 -27.5t66.5 27.5t27.5 66.5t-27.5 66.5t-66.5 27.5t-66.5 -27.5t-27.5 -66.5z" glyph-name="degree"/>
<glyph horiz-adv-x="600" unicode="±" d="M249 381v125h102v-125h201v-102h-201v-125h-102v125h-201v102h201zM48 0v102h504v-102h-504z" glyph-name="plusminus"/>
<glyph horiz-adv-x="360" unicode="²" d="M336 343v-70h-315q1 110 100 171q10 7 36 23t39 25t30 24t24.5 31t8.5 35q0 31 -21 46.5t-52 15.5q-69 0 -73 -93h-87q0 76 44 119.5t120 43.5q68 0 112 -32.5t44 -97.5q0 -76 -102 -141q-9 -6 -37 -23.5t-39.5 -25.5t-25.5 -22.5t-19 -28.5h213z" glyph-name="twosuperior"/>
<glyph horiz-adv-x="360" unicode="³" d="M146 475v58q42 -2 71.5 13t29.5 48q0 25 -21 37.5t-48 12.5q-33 0 -53.5 -21.5t-19.5 -54.5h-80q3 69 44 107.5t110 38.5q62 0 105 -28.5t43 -87.5q0 -68 -64 -90v-2q38 -7 60 -35.5t22 -69.5q0 -64 -47 -100.5t-118 -36.5q-80 0 -121 40.5t-43 114.5h80q-2 -37 20.5 -61 t63.5 -24q36 0 60.5 19.5t24.5 51.5q0 43 -32.5 57.5t-86.5 12.5z" glyph-name="threesuperior"/>
<glyph horiz-adv-x="241" unicode="´" d="M45 588l90 143h135l-142 -143h-83z" glyph-name="acute"/>
<glyph horiz-adv-x="574" unicode="µ" d="M514 517v-517h-112v72h-2q-20 -38 -60 -62t-76 -24q-59 0 -90 36v-213h-114v708h114v-317q0 -124 99 -124q127 0 127 141v300h114z" glyph-name="mu"/>
<glyph horiz-adv-x="600" unicode="¶" d="M246 -160v504q-96 0 -155.5 51t-59.5 131q0 97 61.5 142.5t171.5 45.5h259v-874h-80v809h-117v-809h-80z" glyph-name="paragraph"/>
<glyph horiz-adv-x="278" unicode="·" d="M64 302q0 29 23 51.5t52 22.5q30 0 52.5 -22.5t22.5 -51.5q0 -30 -22.5 -53t-52.5 -23t-52.5 23t-22.5 53z" glyph-name="periodcentered"/>
<glyph horiz-adv-x="241" unicode="¸" d="M9 -200l18 40q48 -16 65 -16q61 0 61 41q0 18 -14 28t-32 10q-22 0 -39 -10l-22 19l66 88h48l-45 -58v-2q8 3 33 3q33 0 59 -19.5t26 -54.5q0 -47 -35.5 -68.5t-85.5 -21.5q-67 0 -103 21z" glyph-name="cedilla"/>
<glyph horiz-adv-x="360" unicode="¹" d="M36 577v58q54 0 91.5 17.5t46.5 52.5h70v-432h-87v304h-121z" glyph-name="onesuperior"/>
<glyph horiz-adv-x="380" unicode="º" d="M284 543q0 41 -24 73.5t-67 32.5t-67 -32t-24 -74t24 -73.5t67 -31.5q44 0 66 31t25 74zM371 543q0 -78 -46.5 -124t-131.5 -46t-131.5 46t-46.5 124t46.5 124.5t131.5 46.5t131.5 -46.5t46.5 -124.5z" glyph-name="ordmasculine"/>
<glyph horiz-adv-x="463" unicode="»" d="M60 451l155 -123v-112l-155 -123v103l95 76l-95 76v103zM258 451l155 -123v-112l-155 -123v103l95 76l-95 76v103z" glyph-name="guillemotright"/>
<glyph horiz-adv-x="834" unicode="¼" d="M719 97v-97h-87v97h-195v81l185 250h97v-256h47v-75h-47zM632 172v158h-2l-117 -158h119zM37 577v58q53 0 91 17.5t47 52.5h70v-432h-87v304h-121zM141 -24l419 748h78l-418 -748h-79z" glyph-name="onequarter"/>
<glyph horiz-adv-x="834" unicode="½" d="M137 -24l419 748h78l-418 -748h-79zM36 577v58q54 0 91.5 17.5t46.5 52.5h70v-432h-87v304h-121zM788 70v-70h-315q0 67 31.5 108t87.5 76q9 6 33.5 20.5t34.5 21.5t25 20.5t20.5 28.5t5.5 34q0 31 -20.5 49t-52.5 18q-69 0 -73 -98h-87q0 78 43 123t121 45 q68 0 112 -34.5t44 -100.5q0 -46 -27 -78t-75 -63q-9 -6 -30.5 -19t-31.5 -19.5t-24.5 -17.5t-22.5 -22t-12 -22h213z" glyph-name="onehalf"/>
<glyph horiz-adv-x="834" unicode="¾" d="M756 97v-97h-87v97h-195v81l183 250h99v-256h47v-75h-47zM669 172v158h-2l-117 -158h119zM196 -24l419 748h78l-418 -748h-79zM146 474v58q42 -2 71.5 13.5t29.5 48.5q0 25 -21 37.5t-48 12.5q-33 0 -53.5 -21.5t-19.5 -54.5h-80q3 69 44 107.5t110 38.5q62 0 105 -28.5 t43 -87.5q0 -68 -64 -90v-2q38 -7 60 -35.5t22 -69.5q0 -64 -47 -100.5t-118 -36.5q-80 0 -121 40.5t-43 114.5h80q-2 -37 20.5 -61t63.5 -24q36 0 60.5 19.5t24.5 51.5q0 73 -119 69z" glyph-name="threequarters"/>
<glyph unicode="¿" d="M393 39h114q1 -107 -64.5 -173t-175.5 -66q-94 0 -156 53t-62 144q0 34 6.5 59.5t22 46t26 31t33.5 29.5q33 28 47.5 43t27.5 48t13 78h108q0 -83 -17.5 -124.5t-60.5 -78.5q-4 -4 -15.5 -13.5t-15.5 -13t-13 -12.5t-13 -14t-9.5 -14.5t-8 -17.5t-4.5 -19.5t-2 -23.5 q0 -51 32 -78.5t66 -27.5q60 0 90.5 39t30.5 105zM210 531h134v-125h-134v125z" glyph-name="questiondown"/>
<glyph horiz-adv-x="667" unicode="À" d="M331 591l-108 -307h218l-107 307h-3zM-7 0l274 714h133l275 -714h-134l-67 189h-285l-67 -189h-129zM184 928h134l91 -143h-83z" glyph-name="Agrave"/>
<glyph horiz-adv-x="667" unicode="Á" d="M331 591l-108 -307h218l-107 307h-3zM-7 0l274 714h133l275 -714h-134l-67 189h-285l-67 -189h-129zM258 770l90 143h135l-142 -143h-83z" glyph-name="Aacute"/>
<glyph horiz-adv-x="667" unicode="Â" d="M331 591l-108 -307h218l-107 307h-3zM-7 0l274 714h133l275 -714h-134l-67 189h-285l-67 -189h-129zM333 875l-70 -90h-92l107 143h111l108 -143h-93z" glyph-name="Acircumflex"/>
<glyph horiz-adv-x="667" unicode="Ã" d="M331 591l-108 -307h218l-107 307h-3zM-7 0l274 714h133l275 -714h-134l-67 189h-285l-67 -189h-129zM454 911h56q-8 -54 -33 -81q-28 -34 -78 -34q-27 0 -74 19q-52 18 -69 18t-29.5 -13t-12.5 -28h-57q7 44 34.5 78.5t69.5 34.5q37 0 81 -19q49 -19 62 -19q38 0 50 44z " glyph-name="Atilde"/>
<glyph horiz-adv-x="667" unicode="Ä" d="M331 591l-108 -307h218l-107 307h-3zM-7 0l274 714h133l275 -714h-134l-67 189h-285l-67 -189h-129zM363 904h114v-108h-114v108zM305 796h-114v108h114v-108z" glyph-name="Adieresis"/>
<glyph horiz-adv-x="667" unicode="Å" d="M331 591l-108 -307h218l-107 307h-3zM-7 0l274 714h133l275 -714h-134l-67 189h-285l-67 -189h-129zM334 746q-41 0 -72 31t-31 72q0 42 31 72.5t72 30.5q42 0 72.5 -30.5t30.5 -72.5q0 -41 -30.5 -72t-72.5 -31zM273 849q0 -24 18.5 -42.5t42.5 -18.5q25 0 43 18.5 t18 42.5q0 25 -18 43t-43 18q-24 0 -42.5 -18t-18.5 -43z" glyph-name="Aring"/>
<glyph horiz-adv-x="963" unicode="Æ" d="M421 606l-157 -328h193v328h-36zM-7 0l355 714h576v-108h-348v-187h326v-102h-326v-209h354v-108h-473v183h-239l-86 -183h-139z" glyph-name="AE"/>
<glyph horiz-adv-x="722" unicode="Ç" d="M562 272h122q-8 -127 -89.5 -207t-207.5 -81l-32 -42v-2q8 3 33 3q33 0 59 -19.5t26 -54.5q0 -47 -35.5 -68.5t-85.5 -21.5q-67 0 -103 21l18 40q48 -16 65 -16q61 0 61 41q0 18 -14 28t-32 10q-22 0 -39 -10l-22 19l55 73q-139 14 -221 119.5t-82 252.5q0 158 93 266 t249 108q124 -1 208 -66t95 -178h-125q-36 142 -178 142q-107 0 -162 -79.5t-55 -192.5t55 -192.5t162 -79.5q80 0 127 52.5t55 134.5z" glyph-name="Ccedilla"/>
<glyph horiz-adv-x="630" unicode="È" d="M76 0v714h514v-108h-389v-187h360v-102h-360v-209h396v-108h-521zM166 928h134l91 -143h-83z" glyph-name="Egrave"/>
<glyph horiz-adv-x="630" unicode="É" d="M76 0v714h514v-108h-389v-187h360v-102h-360v-209h396v-108h-521zM240 785l90 143h135l-142 -143h-83z" glyph-name="Eacute"/>
<glyph horiz-adv-x="630" unicode="Ê" d="M76 0v714h514v-108h-389v-187h360v-102h-360v-209h396v-108h-521zM315 875l-70 -90h-92l107 143h111l108 -143h-93z" glyph-name="Ecircumflex"/>
<glyph horiz-adv-x="630" unicode="Ë" d="M76 0v714h514v-108h-389v-187h360v-102h-360v-209h396v-108h-521zM345 904h114v-108h-114v108zM287 796h-114v108h114v-108z" glyph-name="Edieresis"/>
<glyph horiz-adv-x="278" unicode="Ì" d="M76 0v714h125v-714h-125zM-10 928h134l91 -143h-83z" glyph-name="Igrave"/>
<glyph horiz-adv-x="278" unicode="Í" d="M76 0v714h125v-714h-125zM64 780l90 143h135l-142 -143h-83z" glyph-name="Iacute"/>
<glyph horiz-adv-x="278" unicode="Î" d="M76 0v714h125v-714h-125zM139 875l-70 -90h-92l107 143h111l108 -143h-93z" glyph-name="Icircumflex"/>
<glyph horiz-adv-x="278" unicode="Ï" d="M76 0v714h125v-714h-125zM169 904h114v-108h-114v108zM111 796h-114v108h114v-108z" glyph-name="Idieresis"/>
<glyph horiz-adv-x="722" unicode="Ð" d="M76 0v317h-67v102h67v295h296q157 0 236 -99.5t79 -257.5t-79 -257.5t-236 -99.5h-296zM201 612v-193h195v-102h-195v-215h123q71 0 119.5 19t73.5 55.5t35 79.5t10 101t-10 101t-35 79.5t-73.5 55.5t-119.5 19h-123z" glyph-name="Eth"/>
<glyph horiz-adv-x="722" unicode="Ñ" d="M71 0v714h132l326 -526h2v526h119v-714h-132l-325 525h-3v-525h-119zM482 911h56q-8 -54 -33 -81q-28 -34 -78 -34q-27 0 -74 19q-52 18 -69 18t-29.5 -13t-12.5 -28h-57q7 44 34.5 78.5t69.5 34.5q37 0 81 -19q49 -19 62 -19q38 0 50 44z" glyph-name="Ntilde"/>
<glyph horiz-adv-x="760" unicode="Ò" d="M380 731q156 0 249 -108t93 -266t-93 -266t-249 -108t-249 108t-93 266t93 266t249 108zM380 629q-107 0 -162 -79.5t-55 -192.5t55 -192.5t162 -79.5t162 79.5t55 192.5t-55 192.5t-162 79.5zM231 928h134l91 -143h-83z" glyph-name="Ograve"/>
<glyph horiz-adv-x="760" unicode="Ó" d="M380 731q156 0 249 -108t93 -266t-93 -266t-249 -108t-249 108t-93 266t93 266t249 108zM380 629q-107 0 -162 -79.5t-55 -192.5t55 -192.5t162 -79.5t162 79.5t55 192.5t-55 192.5t-162 79.5zM305 770l90 143h135l-142 -143h-83z" glyph-name="Oacute"/>
<glyph horiz-adv-x="760" unicode="Ô" d="M380 731q156 0 249 -108t93 -266t-93 -266t-249 -108t-249 108t-93 266t93 266t249 108zM380 629q-107 0 -162 -79.5t-55 -192.5t55 -192.5t162 -79.5t162 79.5t55 192.5t-55 192.5t-162 79.5zM380 875l-70 -90h-92l107 143h111l108 -143h-93z" glyph-name="Ocircumflex"/>
<glyph horiz-adv-x="760" unicode="Õ" d="M380 731q156 0 249 -108t93 -266t-93 -266t-249 -108t-249 108t-93 266t93 266t249 108zM380 629q-107 0 -162 -79.5t-55 -192.5t55 -192.5t162 -79.5t162 79.5t55 192.5t-55 192.5t-162 79.5zM501 911h56q-8 -54 -33 -81q-28 -34 -78 -34q-26 0 -74 19q-52 18 -69 18 t-29.5 -13t-12.5 -28h-57q7 44 34.5 78.5t69.5 34.5q37 0 81 -19q49 -19 62 -19q38 0 50 44z" glyph-name="Otilde"/>
<glyph horiz-adv-x="760" unicode="Ö" d="M380 731q156 0 249 -108t93 -266t-93 -266t-249 -108t-249 108t-93 266t93 266t249 108zM380 629q-107 0 -162 -79.5t-55 -192.5t55 -192.5t162 -79.5t162 79.5t55 192.5t-55 192.5t-162 79.5zM410 904h114v-108h-114v108zM352 796h-114v108h114v-108z" glyph-name="Odieresis"/>
<glyph horiz-adv-x="600" unicode="×" d="M229 253l-174 174l86 56l158 -159l160 159l86 -56l-175 -174l175 -174l-86 -56l-160 160l-158 -160l-86 56z" glyph-name="multiply"/>
<glyph horiz-adv-x="760" unicode="Ø" d="M199 196l329 370q-55 63 -148 63q-107 0 -162 -79.5t-55 -192.5q0 -95 36 -161zM560 518l-328 -370q58 -63 148 -63q107 0 162 79.5t55 192.5q0 94 -37 161zM677 734l43 -36l-79 -89q81 -104 81 -252q0 -158 -93 -266t-249 -108q-134 0 -222 82l-76 -85l-42 36l79 90 q-81 103 -81 251q0 158 93 266t249 108q133 0 222 -81z" glyph-name="Oslash"/>
<glyph horiz-adv-x="722" unicode="Ù" d="M68 257v457h125v-416q0 -36 2 -59t11 -54.5t26 -49.5t49.5 -31t79.5 -13t79.5 13t49.5 31t26 49.5t11 54.5t2 59v416h125v-457q0 -134 -78.5 -204t-214.5 -70t-214.5 70t-78.5 204zM212 928h134l91 -143h-83z" glyph-name="Ugrave"/>
<glyph horiz-adv-x="722" unicode="Ú" d="M68 257v457h125v-416q0 -36 2 -59t11 -54.5t26 -49.5t49.5 -31t79.5 -13t79.5 13t49.5 31t26 49.5t11 54.5t2 59v416h125v-457q0 -134 -78.5 -204t-214.5 -70t-214.5 70t-78.5 204zM286 770l90 143h135l-142 -143h-83z" glyph-name="Uacute"/>
<glyph horiz-adv-x="722" unicode="Û" d="M68 257v457h125v-416q0 -36 2 -59t11 -54.5t26 -49.5t49.5 -31t79.5 -13t79.5 13t49.5 31t26 49.5t11 54.5t2 59v416h125v-457q0 -134 -78.5 -204t-214.5 -70t-214.5 70t-78.5 204zM361 875l-70 -90h-92l107 143h111l108 -143h-93z" glyph-name="Ucircumflex"/>
<glyph horiz-adv-x="722" unicode="Ü" d="M68 257v457h125v-416q0 -36 2 -59t11 -54.5t26 -49.5t49.5 -31t79.5 -13t79.5 13t49.5 31t26 49.5t11 54.5t2 59v416h125v-457q0 -134 -78.5 -204t-214.5 -70t-214.5 70t-78.5 204zM391 904h114v-108h-114v108zM333 796h-114v108h114v-108z" glyph-name="Udieresis"/>
<glyph horiz-adv-x="648" unicode="Ý" d="M262 0v280l-268 434h145l189 -320l186 320h140l-267 -434v-280h-125zM249 770l90 143h135l-142 -143h-83z" glyph-name="Yacute"/>
<glyph horiz-adv-x="667" unicode="Þ" d="M76 0v714h125v-108h190q72 0 123 -21t75.5 -57t34.5 -70.5t10 -72.5t-10 -72.5t-34.5 -69.5t-75.5 -56t-123 -21h-190v-166h-125zM201 504v-236h183q50 0 87.5 28t37.5 90q0 118 -123 118h-185z" glyph-name="Thorn"/>
<glyph horiz-adv-x="574" unicode="ß" d="M63 0v523q0 96 61 152t158 56q86 0 149.5 -49t63.5 -131q0 -53 -26 -94.5t-76 -56.5v-2q61 -7 97.5 -57t36.5 -114q0 -105 -62.5 -173t-166.5 -68q-28 0 -56 3v90q15 -3 39 -3q42 0 70 14t40.5 39.5t17 49t4.5 53.5q0 66 -55 98q-38 25 -115 25v75q69 0 99 26 q39 29 39 84q0 101 -101 101q-43 0 -73 -29t-30 -101v-511h-114z" glyph-name="germandbls"/>
<glyph unicode="à" d="M379 174v85q-16 -10 -37.5 -15.5t-55.5 -9.5t-47 -6q-43 -7 -68 -26t-25 -60q0 -34 33.5 -50t71.5 -16q46 0 87 24.5t41 73.5zM493 381v-266q0 -21 6 -30t21 -9q16 0 28 2v-79q-37 -13 -72 -13q-76 0 -88 63q-32 -31 -81 -47t-98 -16q-75 0 -126 39.5t-51 111.5 q0 46 16.5 77.5t48.5 48t61 23.5t73 12q17 3 46.5 6.5t44.5 6.5t32 9.5t24.5 19t7.5 31.5q0 70 -107 70q-50 0 -80 -20.5t-34 -61.5h-114q6 92 71.5 132t163.5 40q85 0 146 -37t61 -113zM129 731h134l91 -143h-83z" glyph-name="agrave"/>
<glyph unicode="á" d="M379 174v85q-16 -10 -37.5 -15.5t-55.5 -9.5t-47 -6q-43 -7 -68 -26t-25 -60q0 -34 33.5 -50t71.5 -16q46 0 87 24.5t41 73.5zM493 381v-266q0 -21 6 -30t21 -9q16 0 28 2v-79q-37 -13 -72 -13q-76 0 -88 63q-32 -31 -81 -47t-98 -16q-75 0 -126 39.5t-51 111.5 q0 46 16.5 77.5t48.5 48t61 23.5t73 12q17 3 46.5 6.5t44.5 6.5t32 9.5t24.5 19t7.5 31.5q0 70 -107 70q-50 0 -80 -20.5t-34 -61.5h-114q6 92 71.5 132t163.5 40q85 0 146 -37t61 -113zM203 588l90 143h135l-142 -143h-83z" glyph-name="aacute"/>
<glyph unicode="â" d="M379 174v85q-16 -10 -37.5 -15.5t-55.5 -9.5t-47 -6q-43 -7 -68 -26t-25 -60q0 -34 33.5 -50t71.5 -16q46 0 87 24.5t41 73.5zM493 381v-266q0 -21 6 -30t21 -9q16 0 28 2v-79q-37 -13 -72 -13q-76 0 -88 63q-32 -31 -81 -47t-98 -16q-75 0 -126 39.5t-51 111.5 q0 46 16.5 77.5t48.5 48t61 23.5t73 12q17 3 46.5 6.5t44.5 6.5t32 9.5t24.5 19t7.5 31.5q0 70 -107 70q-50 0 -80 -20.5t-34 -61.5h-114q6 92 71.5 132t163.5 40q85 0 146 -37t61 -113zM278 678l-70 -90h-92l107 143h111l108 -143h-93z" glyph-name="acircumflex"/>
<glyph unicode="ã" d="M379 174v85q-16 -10 -37.5 -15.5t-55.5 -9.5t-47 -6q-43 -7 -68 -26t-25 -60q0 -34 33.5 -50t71.5 -16q46 0 87 24.5t41 73.5zM493 381v-266q0 -21 6 -30t21 -9q16 0 28 2v-79q-37 -13 -72 -13q-76 0 -88 63q-32 -31 -81 -47t-98 -16q-75 0 -126 39.5t-51 111.5 q0 46 16.5 77.5t48.5 48t61 23.5t73 12q17 3 46.5 6.5t44.5 6.5t32 9.5t24.5 19t7.5 31.5q0 70 -107 70q-50 0 -80 -20.5t-34 -61.5h-114q6 92 71.5 132t163.5 40q85 0 146 -37t61 -113zM399 714h56q-8 -54 -33 -81q-28 -34 -78 -34q-26 0 -74 19q-52 18 -69 18t-29.5 -13 t-12.5 -28h-57q7 44 34.5 78.5t69.5 34.5q37 0 81 -19q49 -19 62 -19q38 0 50 44z" glyph-name="atilde"/>
<glyph unicode="ä" d="M379 174v85q-16 -10 -37.5 -15.5t-55.5 -9.5t-47 -6q-43 -7 -68 -26t-25 -60q0 -34 33.5 -50t71.5 -16q46 0 87 24.5t41 73.5zM493 381v-266q0 -21 6 -30t21 -9q16 0 28 2v-79q-37 -13 -72 -13q-76 0 -88 63q-32 -31 -81 -47t-98 -16q-75 0 -126 39.5t-51 111.5 q0 46 16.5 77.5t48.5 48t61 23.5t73 12q17 3 46.5 6.5t44.5 6.5t32 9.5t24.5 19t7.5 31.5q0 70 -107 70q-50 0 -80 -20.5t-34 -61.5h-114q6 92 71.5 132t163.5 40q85 0 146 -37t61 -113zM308 707h114v-108h-114v108zM250 599h-114v108h114v-108z" glyph-name="adieresis"/>
<glyph unicode="å" d="M379 174v85q-16 -10 -37.5 -15.5t-55.5 -9.5t-47 -6q-43 -7 -68 -26t-25 -60q0 -34 33.5 -50t71.5 -16q46 0 87 24.5t41 73.5zM493 381v-266q0 -21 6 -30t21 -9q16 0 28 2v-79q-37 -13 -72 -13q-76 0 -88 63q-32 -31 -81 -47t-98 -16q-75 0 -126 39.5t-51 111.5 q0 46 16.5 77.5t48.5 48t61 23.5t73 12q17 3 46.5 6.5t44.5 6.5t32 9.5t24.5 19t7.5 31.5q0 70 -107 70q-50 0 -80 -20.5t-34 -61.5h-114q6 92 71.5 132t163.5 40q85 0 146 -37t61 -113zM279 549q-41 0 -72 31t-31 72q0 42 31 72.5t72 30.5q42 0 72.5 -30.5t30.5 -72.5 q0 -41 -30.5 -72t-72.5 -31zM218 652q0 -24 18.5 -42.5t42.5 -18.5q25 0 43 18.5t18 42.5q0 25 -18 43t-43 18q-24 0 -42.5 -18t-18.5 -43z" glyph-name="aring"/>
<glyph horiz-adv-x="889" unicode="æ" d="M487 304h261q1 62 -34 99.5t-97 37.5q-58 0 -92 -39t-38 -98zM379 180v77q-11 -10 -31.5 -15t-56 -8t-51.5 -6q-44 -7 -69 -26t-25 -60q0 -36 30.5 -51t73.5 -15q51 0 90 28t39 76zM744 163h114q-22 -82 -85 -129.5t-149 -47.5q-136 0 -190 95q-64 -95 -215 -95 q-81 0 -134 39t-53 112q0 46 16.5 77.5t48.5 48t61 23.5t73 12q16 3 39 6t36.5 5t29.5 6t24 10.5t14 18t6 27.5q0 70 -101 70q-50 0 -80 -20.5t-34 -61.5h-114q6 92 71 132t161 40q128 0 175 -70q53 70 164 70q127 0 188 -83.5t52 -218.5h-375q-1 -64 33.5 -108.5 t101.5 -44.5q91 0 122 87z" glyph-name="ae"/>
<glyph unicode="ç" d="M409 194h114q-15 -95 -70.5 -148.5t-145.5 -57.5l-35 -46v-2q8 3 33 3q33 0 59 -19.5t26 -54.5q0 -47 -35.5 -68.5t-85.5 -21.5q-67 0 -103 21l18 40q48 -16 65 -16q61 0 61 41q0 18 -14 28t-32 10q-22 0 -39 -10l-22 19l57 76q-107 8 -166 81t-59 184q0 123 66 200.5 t189 77.5q95 0 160 -48t73 -139h-114q-7 46 -38.5 71.5t-79.5 25.5q-25 0 -47.5 -8t-45 -27t-36 -58t-13.5 -95q0 -73 34 -125t103 -52q50 0 82.5 31.5t40.5 86.5z" glyph-name="ccedilla"/>
<glyph unicode="è" d="M529 229h-380q0 -65 35.5 -109t103.5 -44q96 0 126 86h108q-18 -83 -82.5 -129.5t-151.5 -46.5q-119 0 -186 75t-67 197q0 114 69 193.5t181 79.5q119 0 189 -91t55 -211zM149 304h266q-3 57 -38.5 97t-91.5 40q-58 0 -96 -39t-40 -98zM129 731h134l91 -143h-83z" glyph-name="egrave"/>
<glyph unicode="é" d="M529 229h-380q0 -65 35.5 -109t103.5 -44q96 0 126 86h108q-18 -83 -82.5 -129.5t-151.5 -46.5q-119 0 -186 75t-67 197q0 114 69 193.5t181 79.5q119 0 189 -91t55 -211zM149 304h266q-3 57 -38.5 97t-91.5 40q-58 0 -96 -39t-40 -98zM203 588l90 143h135l-142 -143h-83 z" glyph-name="eacute"/>
<glyph unicode="ê" d="M529 229h-380q0 -65 35.5 -109t103.5 -44q96 0 126 86h108q-18 -83 -82.5 -129.5t-151.5 -46.5q-119 0 -186 75t-67 197q0 114 69 193.5t181 79.5q119 0 189 -91t55 -211zM149 304h266q-3 57 -38.5 97t-91.5 40q-58 0 -96 -39t-40 -98zM278 678l-70 -90h-92l107 143h111 l108 -143h-93z" glyph-name="ecircumflex"/>
<glyph unicode="ë" d="M529 229h-380q0 -65 35.5 -109t103.5 -44q96 0 126 86h108q-18 -83 -82.5 -129.5t-151.5 -46.5q-119 0 -186 75t-67 197q0 114 69 193.5t181 79.5q119 0 189 -91t55 -211zM149 304h266q-3 57 -38.5 97t-91.5 40q-58 0 -96 -39t-40 -98zM308 707h114v-108h-114v108z M250 599h-114v108h114v-108z" glyph-name="edieresis"/>
<glyph horiz-adv-x="241" unicode="ì" d="M177 0h-114v517h114v-517zM-29 731h134l91 -143h-83z" glyph-name="igrave"/>
<glyph horiz-adv-x="241" unicode="í" d="M177 0h-114v517h114v-517zM45 588l90 143h135l-142 -143h-83z" glyph-name="iacute"/>
<glyph horiz-adv-x="241" unicode="î" d="M177 0h-114v517h114v-517zM120 678l-70 -90h-92l107 143h111l108 -143h-93z" glyph-name="icircumflex"/>
<glyph horiz-adv-x="241" unicode="ï" d="M177 0h-114v517h114v-517zM150 707h114v-108h-114v108zM92 599h-114v108h114v-108z" glyph-name="idieresis"/>
<glyph horiz-adv-x="593" unicode="ð" d="M299 416q-75 0 -109 -47.5t-34 -123.5q0 -73 33.5 -121t98.5 -48q66 0 107 50.5t41 118.5q0 71 -34.5 121t-102.5 50zM194 541l-50 49l96 46q-62 27 -85 34l76 61q55 -18 104 -50l105 50l49 -49l-94 -45q75 -61 115 -146t40 -182q0 -144 -65.5 -233.5t-203.5 -89.5 q-112 0 -175.5 73.5t-63.5 192.5q0 103 61.5 178.5t161.5 75.5q81 0 143 -44h2q-29 64 -108 131z" glyph-name="eth"/>
<glyph horiz-adv-x="574" unicode="ñ" d="M60 0v517h108v-76l2 -2q26 43 68 67.5t93 24.5q86 0 134.5 -45t48.5 -131v-355h-114v325q-1 60 -25.5 88t-75.5 28q-56 0 -90.5 -39t-34.5 -97v-305h-114zM408 714h56q-8 -54 -33 -81q-28 -34 -78 -34q-26 0 -74 19q-52 18 -69 18t-29.5 -13t-12.5 -28h-57 q7 44 34.5 78.5t69.5 34.5q37 0 81 -19q49 -19 62 -19q38 0 50 44z" glyph-name="ntilde"/>
<glyph horiz-adv-x="593" unicode="ò" d="M297 76q72 0 109.5 54t37.5 129q0 74 -37.5 128t-109.5 54t-109.5 -54t-37.5 -128q0 -75 37.5 -129t109.5 -54zM297 -14q-122 0 -191.5 75.5t-69.5 197.5q0 121 69.5 196.5t191.5 75.5t191.5 -75.5t69.5 -196.5q0 -122 -69.5 -197.5t-191.5 -75.5zM147 731h134l91 -143 h-83z" glyph-name="ograve"/>
<glyph horiz-adv-x="593" unicode="ó" d="M297 76q72 0 109.5 54t37.5 129q0 74 -37.5 128t-109.5 54t-109.5 -54t-37.5 -128q0 -75 37.5 -129t109.5 -54zM297 -14q-122 0 -191.5 75.5t-69.5 197.5q0 121 69.5 196.5t191.5 75.5t191.5 -75.5t69.5 -196.5q0 -122 -69.5 -197.5t-191.5 -75.5zM221 588l90 143h135 l-142 -143h-83z" glyph-name="oacute"/>
<glyph horiz-adv-x="593" unicode="ô" d="M297 76q72 0 109.5 54t37.5 129q0 74 -37.5 128t-109.5 54t-109.5 -54t-37.5 -128q0 -75 37.5 -129t109.5 -54zM297 -14q-122 0 -191.5 75.5t-69.5 197.5q0 121 69.5 196.5t191.5 75.5t191.5 -75.5t69.5 -196.5q0 -122 -69.5 -197.5t-191.5 -75.5zM296 678l-70 -90h-92 l107 143h111l108 -143h-93z" glyph-name="ocircumflex"/>
<glyph horiz-adv-x="593" unicode="õ" d="M297 76q72 0 109.5 54t37.5 129q0 74 -37.5 128t-109.5 54t-109.5 -54t-37.5 -128q0 -75 37.5 -129t109.5 -54zM297 -14q-122 0 -191.5 75.5t-69.5 197.5q0 121 69.5 196.5t191.5 75.5t191.5 -75.5t69.5 -196.5q0 -122 -69.5 -197.5t-191.5 -75.5zM417 714h56 q-8 -54 -33 -81q-28 -34 -78 -34q-27 0 -74 19q-52 18 -69 18t-29.5 -13t-12.5 -28h-57q7 44 34.5 78.5t69.5 34.5q37 0 81 -19q49 -19 62 -19q38 0 50 44z" glyph-name="otilde"/>
<glyph horiz-adv-x="593" unicode="ö" d="M297 76q72 0 109.5 54t37.5 129q0 74 -37.5 128t-109.5 54t-109.5 -54t-37.5 -128q0 -75 37.5 -129t109.5 -54zM297 -14q-122 0 -191.5 75.5t-69.5 197.5q0 121 69.5 196.5t191.5 75.5t191.5 -75.5t69.5 -196.5q0 -122 -69.5 -197.5t-191.5 -75.5zM326 707h114v-108h-114 v108zM268 599h-114v108h114v-108z" glyph-name="odieresis"/>
<glyph horiz-adv-x="600" unicode="÷" d="M552 202h-504v102h504v-102zM301 387q-29 0 -51 21.5t-22 50.5q0 30 21.5 51t50.5 21t50.5 -21.5t21.5 -50.5q0 -27 -21.5 -49.5t-49.5 -22.5zM301 -25q-29 0 -51 21.5t-22 50.5q0 30 21.5 51t50.5 21t50.5 -21.5t21.5 -50.5q0 -27 -21.5 -49.5t-49.5 -22.5z" glyph-name="divide"/>
<glyph horiz-adv-x="593" unicode="ø" d="M421 362l-223 -244q39 -42 99 -42q72 0 109.5 54t37.5 129q0 58 -23 103zM64 -28l-32 28l65 72q-61 73 -61 187q0 121 69.5 196.5t191.5 75.5q104 0 170 -55l63 69l32 -28l-65 -71q61 -75 61 -187q0 -122 -69.5 -197.5t-191.5 -75.5q-102 0 -169 56zM173 155l223 244 q-39 42 -99 42q-72 0 -109.5 -54t-37.5 -128q0 -59 23 -104z" glyph-name="oslash"/>
<glyph horiz-adv-x="574" unicode="ù" d="M514 517v-517h-112v72h-2q-21 -38 -62.5 -62t-84.5 -24q-100 0 -146.5 50t-46.5 153v328h114v-317q0 -124 99 -124q127 0 127 141v300h114zM138 731h134l91 -143h-83z" glyph-name="ugrave"/>
<glyph horiz-adv-x="574" unicode="ú" d="M514 517v-517h-112v72h-2q-21 -38 -62.5 -62t-84.5 -24q-100 0 -146.5 50t-46.5 153v328h114v-317q0 -124 99 -124q127 0 127 141v300h114zM212 588l90 143h135l-142 -143h-83z" glyph-name="uacute"/>
<glyph horiz-adv-x="574" unicode="û" d="M514 517v-517h-112v72h-2q-21 -38 -62.5 -62t-84.5 -24q-100 0 -146.5 50t-46.5 153v328h114v-317q0 -124 99 -124q127 0 127 141v300h114zM287 678l-70 -90h-92l107 143h111l108 -143h-93z" glyph-name="ucircumflex"/>
<glyph horiz-adv-x="574" unicode="ü" d="M514 517v-517h-112v72h-2q-21 -38 -62.5 -62t-84.5 -24q-100 0 -146.5 50t-46.5 153v328h114v-317q0 -124 99 -124q127 0 127 141v300h114zM317 707h114v-108h-114v108zM259 599h-114v108h114v-108z" glyph-name="udieresis"/>
<glyph horiz-adv-x="519" unicode="ý" d="M199 2l-196 515h125l135 -386h2l131 386h119l-201 -545q-36 -90 -56 -117q-44 -60 -127 -60q-40 0 -79 6v96q42 -7 54 -7q36 0 52 17t28 55zM184 588l90 143h135l-142 -143h-83z" glyph-name="yacute"/>
<glyph horiz-adv-x="611" unicode="þ" d="M63 -191v905h114v-264h2q23 37 66 59t88 22q117 0 179.5 -77.5t62.5 -197.5q0 -113 -57.5 -191.5t-165.5 -78.5q-53 0 -100.5 20t-72.5 61h-2v-258h-114zM461 258q0 75 -38 129t-105 54q-70 0 -107.5 -49t-37.5 -134q0 -80 39 -131t106 -51q72 0 107.5 53t35.5 129z" glyph-name="thorn"/>
<hkern k="92" g2="T" g1="A,Agrave,Aacute,Acircumflex,Atilde,Adieresis,Aring"/>
<hkern k="18" g2="v" g1="A,Agrave,Aacute,Acircumflex,Atilde,Adieresis,Aring"/>
<hkern k="62" g2="V" g1="A,Agrave,Aacute,Acircumflex,Atilde,Adieresis,Aring"/>
<hkern k="18" g2="w" g1="A,Agrave,Aacute,Acircumflex,Atilde,Adieresis,Aring"/>
<hkern k="25" g2="W" g1="A,Agrave,Aacute,Acircumflex,Atilde,Adieresis,Aring"/>
<hkern k="18" g2="y,yacute,ydieresis" g1="A,Agrave,Aacute,Acircumflex,Atilde,Adieresis,Aring"/>
<hkern k="74" g2="Y,Yacute,Ydieresis" g1="A,Agrave,Aacute,Acircumflex,Atilde,Adieresis,Aring"/>
<hkern k="74" g2="quoteright" g1="A,Agrave,Aacute,Acircumflex,Atilde,Adieresis,Aring"/>
<hkern k="-18" g2="quoteright" g1="f,fi,fl"/>
<hkern k="18" g2="f,germandbls,fi,fl" g1="f,fi,fl"/>
<hkern k="55" g2="A,Agrave,Aacute,Acircumflex,Atilde,Adieresis,Aring,AE" g1="F"/>
<hkern k="129" g2="comma" g1="F"/>
<hkern k="129" g2="period" g1="F"/>
<hkern k="92" g2="T" g1="L,Lslash"/>
<hkern k="92" g2="V" g1="L,Lslash"/>
<hkern k="55" g2="W" g1="L,Lslash"/>
<hkern k="37" g2="y,yacute,ydieresis" g1="L,Lslash"/>
<hkern k="111" g2="Y,Yacute,Ydieresis" g1="L,Lslash"/>
<hkern k="74" g2="quoteright" g1="L,Lslash"/>
<hkern k="74" g2="A,Agrave,Aacute,Acircumflex,Atilde,Adieresis,Aring,AE" g1="P"/>
<hkern k="169" g2="comma" g1="P"/>
<hkern k="169" g2="period" g1="P"/>
<hkern k="92" g2="comma" g1="r"/>
<hkern k="92" g2="period" g1="r"/>
<hkern k="18" g2="c,ccedilla" g1="r"/>
<hkern k="18" g2="d,dotlessi" g1="r"/>
<hkern k="18" g2="e,egrave,eacute,ecircumflex,edieresis" g1="r"/>
<hkern k="-18" g2="n,ntilde" g1="r"/>
<hkern k="18" g2="o,ograve,oacute,ocircumflex,otilde,odieresis,oslash,oe" g1="r"/>
<hkern k="18" g2="q" g1="r"/>
<hkern k="55" g2="hyphen" g1="r"/>
<hkern k="18" g2="T" g1="R"/>
<hkern k="18" g2="V" g1="R"/>
<hkern k="18" g2="W" g1="R"/>
<hkern k="37" g2="Y,Yacute,Ydieresis" g1="R"/>
<hkern k="111" g2="w" g1="T"/>
<hkern k="111" g2="y,yacute,ydieresis" g1="T"/>
<hkern k="92" g2="A,Agrave,Aacute,Acircumflex,Atilde,Adieresis,Aring,AE" g1="T"/>
<hkern k="111" g2="comma" g1="T"/>
<hkern k="111" g2="period" g1="T"/>
<hkern k="111" g2="c,ccedilla" g1="T"/>
<hkern k="111" g2="e,egrave,eacute,ecircumflex,edieresis" g1="T"/>
<hkern k="111" g2="o,ograve,oacute,ocircumflex,otilde,odieresis,oslash,oe" g1="T"/>
<hkern k="129" g2="hyphen" g1="T"/>
<hkern k="100" g2="a,agrave,aacute,acircumflex,atilde,adieresis,aring,ae" g1="T"/>
<hkern k="92" g2="r" g1="T"/>
<hkern k="111" g2="s,scaron" g1="T"/>
<hkern k="92" g2="u,ugrave,uacute,ucircumflex,udieresis" g1="T"/>
<hkern k="83" g2="colon" g1="T"/>
<hkern k="83" g2="semicolon" g1="T"/>
<hkern k="74" g2="comma" g1="v"/>
<hkern k="74" g2="period" g1="v"/>
<hkern k="18" g2="y,yacute,ydieresis" g1="V"/>
<hkern k="55" g2="A,Agrave,Aacute,Acircumflex,Atilde,Adieresis,Aring,AE" g1="V"/>
<hkern k="129" g2="comma" g1="V"/>
<hkern k="129" g2="period" g1="V"/>
<hkern k="55" g2="e,egrave,eacute,ecircumflex,edieresis" g1="V"/>
<hkern k="55" g2="o,ograve,oacute,ocircumflex,otilde,odieresis,oslash,oe" g1="V"/>
<hkern k="55" g2="hyphen" g1="V"/>
<hkern k="55" g2="a,agrave,aacute,acircumflex,atilde,adieresis,aring,ae" g1="V"/>
<hkern k="37" g2="r" g1="V"/>
<hkern k="37" g2="u,ugrave,uacute,ucircumflex,udieresis" g1="V"/>
<hkern k="46" g2="colon" g1="V"/>
<hkern k="46" g2="semicolon" g1="V"/>
<hkern k="-10" g2="i,igrave,iacute,icircumflex,idieresis" g1="V"/>
<hkern k="55" g2="comma" g1="w"/>
<hkern k="55" g2="period" g1="w"/>
<hkern k="25" g2="A,Agrave,Aacute,Acircumflex,Atilde,Adieresis,Aring,AE" g1="W"/>
<hkern k="74" g2="comma" g1="W"/>
<hkern k="74" g2="period" g1="W"/>
<hkern k="18" g2="e,egrave,eacute,ecircumflex,edieresis" g1="W"/>
<hkern k="18" g2="o,ograve,oacute,ocircumflex,otilde,odieresis,oslash,oe" g1="W"/>
<hkern k="28" g2="hyphen" g1="W"/>
<hkern k="37" g2="a,agrave,aacute,acircumflex,atilde,adieresis,aring,ae" g1="W"/>
<hkern k="18" g2="r" g1="W"/>
<hkern k="18" g2="u,ugrave,uacute,ucircumflex,udieresis" g1="W"/>
<hkern k="18" g2="colon" g1="W"/>
<hkern k="18" g2="semicolon" g1="W"/>
<hkern k="92" g2="comma" g1="y,yacute,ydieresis"/>
<hkern k="92" g2="period" g1="y,yacute,ydieresis"/>
<hkern k="55" g2="v" g1="Y,Yacute,Ydieresis"/>
<hkern k="74" g2="A,Agrave,Aacute,Acircumflex,Atilde,Adieresis,Aring,AE" g1="Y,Yacute,Ydieresis"/>
<hkern k="111" g2="comma" g1="Y,Yacute,Ydieresis"/>
<hkern k="111" g2="period" g1="Y,Yacute,Ydieresis"/>
<hkern k="92" g2="e,egrave,eacute,ecircumflex,edieresis" g1="Y,Yacute,Ydieresis"/>
<hkern k="92" g2="o,ograve,oacute,ocircumflex,otilde,odieresis,oslash,oe" g1="Y,Yacute,Ydieresis"/>
<hkern k="104" g2="q" g1="Y,Yacute,Ydieresis"/>
<hkern k="111" g2="hyphen" g1="Y,Yacute,Ydieresis"/>
<hkern k="92" g2="a,agrave,aacute,acircumflex,atilde,adieresis,aring,ae" g1="Y,Yacute,Ydieresis"/>
<hkern k="86" g2="u,ugrave,uacute,ucircumflex,udieresis" g1="Y,Yacute,Ydieresis"/>
<hkern k="92" g2="colon" g1="Y,Yacute,Ydieresis"/>
<hkern k="92" g2="semicolon" g1="Y,Yacute,Ydieresis"/>
<hkern k="9" g2="i,igrave,iacute,icircumflex,idieresis" g1="Y,Yacute,Ydieresis"/>
<hkern k="86" g2="p" g1="Y,Yacute,Ydieresis"/>
<hkern k="74" g2="s,scaron" g1="quoteright"/>
<hkern k="18" g2="t" g1="quoteright"/>
</font>
</defs>
</svg>
