^^links to doc,source_id,Source,Job1,Job1Clicks,Job1Name,Job1Term1,Job1Term1Clicks,Job1Term2,Job1Term2Clicks,Job1Term3,Job1Term3Clicks,Job1Term4,Job1Term4Clicks,Job1Term5,Job1Term5Clicks,Job2,Job2Clicks,Job2Name,Job2Term1,Job2Term1Clicks,Job2Term2,Job2Term2Clicks,Job2Term3,Job2Term3Clicks,Job2Term4,Job2Term4Clicks,Job2Term5,Job2Term5Clicks,Job3,Job3Clicks,Job3Name,Job3Term1,Job3Term1Clicks,Job3Term2,Job3Term2Clicks,Job3Term3,Job3Term3Clicks,Job3Term4,Job3Term4Clicks,Job3Term5,Job3Term5Clicks,Administrative Average clicks/job,Administrative Top Quartile Clicks,Business staff and professional Average clicks/job,Business staff and professional Top Quartile Clicks,Design / Creative Average clicks/job,Design / Creative Top Quartile Clicks,Education Average clicks/job,Education Top Quartile Clicks,Labor Average clicks/job,Labor Top Quartile Clicks,Management Average clicks/job,Management Top Quartile Clicks,Medical Average clicks/job,Medical Top Quartile Clicks,Sales and Marketing Average clicks/job,Sales and Marketing Top Quartile Clicks,Service Average clicks/job,Service Top Quartile Clicks,STEM Average clicks/job,STEM Top Quartile Clicks,Transportation Average clicks/job,Transportation Top Quartile Clicks,Uncategorized Average clicks/job,Uncategorized Top Quartile Clicks,CPC,CPA,Applies,Total Contacts,Change from last quarter / year,Top recruiter contacts,Your response rate,Top quartile response rate,% of Candidates with 0-2 Years Work Experience (%),% of Candidates with 3-5 Years Work Experience (%),% of Candidates with 6-10 Years Work Experience (%),% of Candidates with 11-20 Years Work Experience (%),% of Candidates with 20+ Years Work Experience (%),% of Candidates with Max Degree High School (%),% of Candidates with Max Degree Vocational / Associates (%),% of Candidates with Max Degree Bachelors (%),% of Candidates with Max Degree Masters (%),% of Candidates with Max Degree Doctorate (%),% of Candidates with Max Degree Unknown (%),NTC,MSA
1,4768847,BreezyHR,4127301924,324,"Marketing Analyst - Civilized - CA, US",marketing,35,analyst,31,data analyst,21,marketing analyst,19,business analyst,17,4139021603,306,"Ecommerce Manager - PLEASANT MATTRESS - CA, US",amazon,53,ecommerce,34,logistics,11,marketing,11,seo,10,4188450606,225,"McAllen - Bilingual Virtual Receptionist (Answering Service) - Apollo Answering Service - TX, US",receptionist,57,administrative assistant,21,part time,18,clerical,13,front desk,8,0.8669202,0.5,0.2015267,0.8,0.5841393,1.2,0,,1.67029,1.7,0.7572115,0.9,0,,0.9358974,0.8,0,,0.2426471,0.9,0.2820513,0.6,0,,1.926221,0,0,157,+57,140,47,63,20,3.5,45.7,34.6,25.9,22,23.1,46.7,87.1,44,56,,
1,4768847,BreezyHR,4127301924,324,"Marketing Analyst - Civilized - CA, US",marketing,35,analyst,31,data analyst,21,marketing analyst,19,business analyst,17,4139021603,306,"Ecommerce Manager - PLEASANT MATTRESS - CA, US",amazon,53,ecommerce,34,logistics,11,marketing,11,seo,10,4188450606,225,"McAllen - Bilingual Virtual Receptionist (Answering Service) - Apollo Answering Service - TX, US",receptionist,57,administrative assistant,21,part time,18,clerical,13,front desk,8,0.8669202,,0.2015267,,0.5841393,,0,,1.67029,,0.7572115,,0,,0.9358974,,0,,0.2426471,,0.2820513,,0,,1.926221,0,0,,,,,,,,,,,,,,,,,,
1,4768847,BreezyHR,4127301924,324,"Marketing Analyst - Civilized - CA, US",marketing,35,analyst,31,data analyst,21,marketing analyst,19,business analyst,17,4139021603,306,"Ecommerce Manager - PLEASANT MATTRESS - CA, US",amazon,53,ecommerce,34,logistics,11,marketing,11,seo,10,4188450606,225,"McAllen - Bilingual Virtual Receptionist (Answering Service) - Apollo Answering Service - TX, US",receptionist,57,administrative assistant,21,part time,18,clerical,13,front desk,8,0.8669202,,0.2015267,,0.5841393,,0,,1.67029,,0.7572115,,0,,0.9358974,,0,,0.2426471,,0.2820513,,0,,1.926221,0,0,,,,,,,,,,,,,,,,,,
1,4768847,BreezyHR,4127301924,324,"Marketing Analyst - Civilized - CA, US",marketing,35,analyst,31,data analyst,21,marketing analyst,19,business analyst,17,4139021603,306,"Ecommerce Manager - PLEASANT MATTRESS - CA, US",amazon,53,ecommerce,34,logistics,11,marketing,11,seo,10,4188450606,225,"McAllen - Bilingual Virtual Receptionist (Answering Service) - Apollo Answering Service - TX, US",receptionist,57,administrative assistant,21,part time,18,clerical,13,front desk,8,0.8669202,,0.2015267,,0.5841393,,0,,1.67029,,0.7572115,,0,,0.9358974,,0,,0.2426471,,0.2820513,,0,,1.926221,0,0,,,,,,,,,,,,,,,,,,
1,4768847,BreezyHR,4127301924,324,"Marketing Analyst - Civilized - CA, US",marketing,35,analyst,31,data analyst,21,marketing analyst,19,business analyst,17,4139021603,306,"Ecommerce Manager - PLEASANT MATTRESS - CA, US",amazon,53,ecommerce,34,logistics,11,marketing,11,seo,10,4188450606,225,"McAllen - Bilingual Virtual Receptionist (Answering Service) - Apollo Answering Service - TX, US",receptionist,57,administrative assistant,21,part time,18,clerical,13,front desk,8,0.8669202,,0.2015267,,0.5841393,,0,,1.67029,,0.7572115,,0,,0.9358974,,0,,0.2426471,,0.2820513,,0,,1.926221,0,0,,,,,,,,,,,,,,,,,,
1,4768847,BreezyHR,4127301924,324,"Marketing Analyst - Civilized - CA, US",marketing,35,analyst,31,data analyst,21,marketing analyst,19,business analyst,17,4139021603,306,"Ecommerce Manager - PLEASANT MATTRESS - CA, US",amazon,53,ecommerce,34,logistics,11,marketing,11,seo,10,4188450606,225,"McAllen - Bilingual Virtual Receptionist (Answering Service) - Apollo Answering Service - TX, US",receptionist,57,administrative assistant,21,part time,18,clerical,13,front desk,8,0.8669202,,0.2015267,,0.5841393,,0,,1.67029,,0.7572115,,0,,0.9358974,,0,,0.2426471,,0.2820513,,0,,1.926221,0,0,,,,,,,,,,,,,,,,,,
1,4768847,BreezyHR,4127301924,324,"Marketing Analyst - Civilized - CA, US",marketing,35,analyst,31,data analyst,21,marketing analyst,19,business analyst,17,4139021603,306,"Ecommerce Manager - PLEASANT MATTRESS - CA, US",amazon,53,ecommerce,34,logistics,11,marketing,11,seo,10,4188450606,225,"McAllen - Bilingual Virtual Receptionist (Answering Service) - Apollo Answering Service - TX, US",receptionist,57,administrative assistant,21,part time,18,clerical,13,front desk,8,0.8669202,,0.2015267,,0.5841393,,0,,1.67029,,0.7572115,,0,,0.9358974,,0,,0.2426471,,0.2820513,,0,,1.926221,0,0,,,,,,,,,,,,,,,,,,
1,4768847,BreezyHR,4127301924,324,"Marketing Analyst - Civilized - CA, US",marketing,35,analyst,31,data analyst,21,marketing analyst,19,business analyst,17,4139021603,306,"Ecommerce Manager - PLEASANT MATTRESS - CA, US",amazon,53,ecommerce,34,logistics,11,marketing,11,seo,10,4188450606,225,"McAllen - Bilingual Virtual Receptionist (Answering Service) - Apollo Answering Service - TX, US",receptionist,57,administrative assistant,21,part time,18,clerical,13,front desk,8,0.8669202,,0.2015267,,0.5841393,,0,,1.67029,,0.7572115,,0,,0.9358974,,0,,0.2426471,,0.2820513,,0,,1.926221,0,0,,,,,,,,,,,,,,,,,,
1,4768847,BreezyHR,4127301924,324,"Marketing Analyst - Civilized - CA, US",marketing,35,analyst,31,data analyst,21,marketing analyst,19,business analyst,17,4139021603,306,"Ecommerce Manager - PLEASANT MATTRESS - CA, US",amazon,53,ecommerce,34,logistics,11,marketing,11,seo,10,4188450606,225,"McAllen - Bilingual Virtual Receptionist (Answering Service) - Apollo Answering Service - TX, US",receptionist,57,administrative assistant,21,part time,18,clerical,13,front desk,8,0.8669202,,0.2015267,,0.5841393,,0,,1.67029,,0.7572115,,0,,0.9358974,,0,,0.2426471,,0.2820513,,0,,1.926221,0,0,,,,,,,,,,,,,,,,,,